…
The feature engineering steps in this post are based on Julia Silge and Max Khun’s tidymodels with R textbook.

ames_rec <- 
  recipe(sale_price ~ neighborhood + gr_liv_area + year_built + bldg_type,
         data = ames_train) %>%
  step_log(gr_liv_area, base = 10) %>% 
  step_corr(all_numeric(), - all_outcomes()) %>% 
  step_nzv(all_predictors()) %>% 
  step_other(neighborhood, threshold = 0.01) %>% 
  step_dummy(all_nominal_predictors()) %>% 
  step_interact( ~ gr_liv_area:starts_with("bldg_type_"))

ames_rec %>%  prep() %>% juice() #view the transformed data

## # A tibble: 2,342 x 33
##    gr_liv_area year_built sale_price neighborhood_College_C… neighborhood_Old_T…
##          <dbl>      <int>      <dbl>                   <dbl>               <dbl>
##  1        2.95       1961       5.02                       0                   0
##  2        2.99       1971       4.98                       0                   0
##  3        3.04       1971       5.02                       0                   0
##  4        3.03       1977       5.11                       0                   0
##  5        2.92       1975       5.08                       0                   0
##  6        2.96       1979       5.00                       0                   0
##  7        2.88       1984       5.10                       0                   0
##  8        3.01       1920       4.83                       0                   0
##  9        3.28       1978       5.05                       0                   0
## 10        2.95       1967       5.09                       0                   0
## # … with 2,332 more rows, and 28 more variables: neighborhood_Edwards <dbl>,
## #   neighborhood_Somerset <dbl>, neighborhood_Northridge_Heights <dbl>,
## #   neighborhood_Gilbert <dbl>, neighborhood_Sawyer <dbl>,
## #   neighborhood_Northwest_Ames <dbl>, neighborhood_Sawyer_West <dbl>,
## #   neighborhood_Mitchell <dbl>, neighborhood_Brookside <dbl>,
## #   neighborhood_Crawford <dbl>, neighborhood_Iowa_DOT_and_Rail_Road <dbl>,
## #   neighborhood_Timberland <dbl>, neighborhood_Northridge <dbl>,
## #   neighborhood_Stone_Brook <dbl>,
## #   neighborhood_South_and_West_of_Iowa_State_University <dbl>,
…
