Hello Tidyverse and Tidymodels | Gabe Mednick
…
Data cleaning and reshaping

It’s time for a little data cleaning! For starters, we can see from the skimr summary that there are a bunch of NAs that we need to decide what to do with. We can also standarize our feature names with the janitor package. We should also consider whether our data is in a tidy format where each column is a feature and each row a sample since this is fundamental necessity for working with data in the tidyverse and tidymodels frameworks. In our data example, the various crops on samples, that can be categorized as the feature crops. The function pivot_longer is fantastic function from the tidyr package that allows us to reshape our data and preparing it for This will benefit our downstream analysis, including EDA (exploratory data analysis) and modeling (machine learning).

crop_yields %>% count(Year)

## # A tibble: 58 x 2
##     Year     n
##    <dbl> <int>
##  1  1961   209
##  2  1962   209
##  3  1963   209
##  4  1964   209
##  5  1965   209
##  6  1966   211
##  7  1967   211
##  8  1968   213
##  9  1969   213
## 10  1970   213
## # … with 48 more rows
…
