…
set.seed(123)
tidy_split <- initial_split(iris_df)
tidy_split

## <Analysis/Assess/Total>
## <113/37/150>

iris_train <- training(tidy_split)
iris_test <- testing(tidy_split)

iris_boots <- bootstraps(iris_train) 
iris_boots

## # Bootstrap sampling 
## # A tibble: 25 x 2
##    splits           id         
##    <list>           <chr>      
##  1 <split [113/39]> Bootstrap01
##  2 <split [113/40]> Bootstrap02
##  3 <split [113/44]> Bootstrap03
##  4 <split [113/41]> Bootstrap04
##  5 <split [113/39]> Bootstrap05
##  6 <split [113/40]> Bootstrap06
##  7 <split [113/42]> Bootstrap07
##  8 <split [113/35]> Bootstrap08
##  9 <split [113/42]> Bootstrap09
## 10 <split [113/41]> Bootstrap10
## # … with 15 more rows
…
# add the model to the workflow and use iris_boots to fit our model 25 times
glmnet_results <- glmnet_wf %>%
  add_model(glmnet_mod) %>% 
  fit_resamples(
    resamples = iris_boots,
    control = control_resamples(extract = extract_model,
                             save_pred = TRUE)
    )
glmnet_results

## # Resampling results
## # Bootstrap sampling 
## # A tibble: 25 x 6
##    splits       id        .metrics      .notes       .extracts    .predictions  
##    <list>       <chr>     <list>        <list>       <list>       <list>        
##  1 <split [113… Bootstra… <tibble [2 ×… <tibble [0 … <tibble [1 … <tibble [39 ×…
##  2 <split [113… Bootstra… <tibble [2 ×… <tibble [0 … <tibble [1 … <tibble [40 ×…
##  3 <split [113… Bootstra… <tibble [2 ×… <tibble [0 … <tibble [1 … <tibble [44 ×…
##  4 <split [113… Bootstra… <tibble [2 ×… <tibble [0 … <tibble [1 … <tibble [41 ×…
##  5 <split [113… Bootstra… <tibble [2 ×… <tibble [0 … <tibble [1 … <tibble [39 ×…
##  6 <split [113… Bootstra… <tibble [2 ×… <tibble [0 … <tibble [1 … <tibble [40 ×…
##  7 <split [113… Bootstra… <tibble [2 ×… <tibble [0 … <tibble [1 … <tibble [42 ×…
##  8 <split [113… Bootstra… <tibble [2 ×… <tibble [0 … <tibble [1 … <tibble [35 ×…
##  9 <split [113… Bootstra… <tibble [2 ×… <tibble [0 … <tibble [1 … <tibble [42 ×…
## 10 <split [113… Bootstra… <tibble [2 ×… <tibble [0 … <tibble [1 … <tibble [41 ×…
## # … with 15 more rows
…
