…
knn_final_fit %>%
  collect_metrics()

## # A tibble: 2 × 4
##   .metric  .estimator .estimate .config             
##   <chr>    <chr>          <dbl> <chr>               
## 1 accuracy multiclass     0.438 Preprocessor1_Model1
## 2 roc_auc  hand_till      0.613 Preprocessor1_Model1

knn_final_fit %>%
  collect_predictions()

## # A tibble: 2,395 × 12
##    id               .pred_all_other .pred_credit_ca… .pred_debt_cons… .pred_education…
##    <chr>                      <dbl>            <dbl>            <dbl>            <dbl>
##  1 train/test split          0.2              0.467             0.133           0     
##  2 train/test split          0.133            0.4               0.333           0.0667
##  3 train/test split          0.0667           0.267             0.667           0     
##  4 train/test split          0.333            0.133             0.333           0     
##  5 train/test split          0.4              0.2               0.333           0     
##  6 train/test split          0                0.133             0.8             0     
##  7 train/test split          0.467            0.333             0.2             0     
##  8 train/test split          0.6              0.0667            0.2             0     
##  9 train/test split          0.333            0.2               0.133           0.0667
## 10 train/test split          0.4              0.4               0.133           0     
## # … with 2,385 more rows, and 7 more variables: .pred_home_improvement <dbl>,
## #   .pred_major_purchase <dbl>, .pred_small_business <dbl>, .row <int>,
## #   .pred_class <fct>, purpose <fct>, .config <chr>
…
