vb_silge | Gabe Mednick
…
losers <- vb_parsed %>%
  select(circuit, gender, year,
         l_attacks:l_digs) %>%
  rename_with(~ str_remove_all(., "l_"), l_attacks:l_digs) %>%
  mutate(win = "lose")

vb_df <- bind_rows(winners, losers) %>%
  mutate_if(is.character, factor)
vb_df

## # A tibble: 32 x 11
##    circuit gender  year attacks kills errors  aces serve_errors blocks  digs
##    <fct>   <fct>  <dbl>   <dbl> <dbl>  <int> <dbl>        <int>  <dbl> <dbl>
##  1 AVP     W       2004       0     0      0     1            0      0     0
##  2 AVP     W       2005      30    23      1     4            1      4     9
##  3 AVP     M       2006      55    42      0     0            0      0    10
##  4 AVP     M       2006      63    47      0     0            0      0    20
##  5 AVP     M       2006      55    42      0     0            0      0     8
##  6 AVP     W       2007      55    31      0     9            0      0    15
##  7 AVP     M       2016      14     8      1     0            1      0     6
##  8 FIVB    W       2004      62    32      0     1            2      4    24
##  9 FIVB    M       2004      46    26      0     1            0      7    18
## 10 FIVB    M       2012      57    36      0     1            2      3    15
## # … with 22 more rows, and 1 more variable: win <fct>
…
