Housing Price Predictions | Gabe Mednick
…
ames_wkfl_fit %>%
  collect_metrics()

## # A tibble: 2 x 4
##   .metric .estimator .estimate .config             
##   <chr>   <chr>          <dbl> <chr>               
## 1 rmse    standard       0.532 Preprocessor1_Model1
## 2 rsq     standard       0.729 Preprocessor1_Model1

ames_wkfl_fit %>%
  collect_predictions()

## # A tibble: 588 x 5
##    id                .pred  .row sale_price .config             
##    <chr>             <dbl> <int>      <dbl> <chr>               
##  1 train/test split  0.441     1      0.621 Preprocessor1_Model1
##  2 train/test split  1.06      4      0.929 Preprocessor1_Model1
##  3 train/test split  0.188     5      0.320 Preprocessor1_Model1
##  4 train/test split  0.417     8      0.340 Preprocessor1_Model1
##  5 train/test split  0.962     9      0.853 Preprocessor1_Model1
##  6 train/test split  0.638    15      0.587 Preprocessor1_Model1
##  7 train/test split  1.08     18      2.10  Preprocessor1_Model1
##  8 train/test split -1.04     19     -0.403 Preprocessor1_Model1
##  9 train/test split -0.105    25     -0.255 Preprocessor1_Model1
## 10 train/test split -0.800    27     -0.677 Preprocessor1_Model1
## # … with 578 more rows
…
